{
  "devToolsPort": 19002,
  "expoServerPort": 19000,
  "packagerPort": 19001,
  "packagerPid": 12725,
  "expoServerNgrokUrl": "https://yt-nfp.anonymous.guess-number.exp.direct",
  "packagerNgrokUrl": "https://packager.yt-nfp.anonymous.guess-number.exp.direct",
  "ngrokPid": 12738
}
